{
	"info": {
		"_postman_id": "ce80b2d7-ee6a-47d4-8eb1-23d8af778c3f",
		"name": "Pcars2",
		"schema": "https://schema.getpostman.com/json/collection/v2.1.0/collection.json"
	},
	"item": [
		{
			"name": "create user",
			"request": {
				"method": "POST",
				"header": [],
				"body": {
					"mode": "raw",
					"raw": "    {\r\n    \t\"id\": 1,\r\n        \"name\":\"test\"\r\n    }",
					"options": {
						"raw": {
							"language": "json"
						}
					}
				},
				"url": {
					"raw": "http://{{url}}:9000/user",
					"protocol": "http",
					"host": [
						"{{url}}"
					],
					"port": "9000",
					"path": [
						"user"
					]
				}
			},
			"response": []
		},
		{
			"name": "all users",
			"request": {
				"method": "GET",
				"header": [],
				"url": {
					"raw": "http://{{url}}:9000/users",
					"protocol": "http",
					"host": [
						"{{url}}"
					],
					"port": "9000",
					"path": [
						"users"
					]
				}
			},
			"response": []
		},
		{
			"name": "user by name",
			"request": {
				"method": "GET",
				"header": [],
				"url": {
					"raw": "http://{{url}}:9000/user?username=user1",
					"protocol": "http",
					"host": [
						"{{url}}"
					],
					"port": "9000",
					"path": [
						"user"
					],
					"query": [
						{
							"key": "username",
							"value": "user1"
						}
					]
				}
			},
			"response": []
		},
		{
			"name": "user by id",
			"request": {
				"method": "GET",
				"header": [],
				"url": {
					"raw": "http://{{url}}:9000/user?id=2",
					"protocol": "http",
					"host": [
						"{{url}}"
					],
					"port": "9000",
					"path": [
						"user"
					],
					"query": [
						{
							"key": "id",
							"value": "2"
						}
					]
				}
			},
			"response": []
		},
		{
			"name": "create track",
			"request": {
				"method": "POST",
				"header": [],
				"body": {
					"mode": "raw",
					"raw": "    {\r\n    \t\"id\": 1,\r\n        \"name\":\"track1\"\r\n    }",
					"options": {
						"raw": {
							"language": "json"
						}
					}
				},
				"url": {
					"raw": "http://{{url}}:9000/track",
					"protocol": "http",
					"host": [
						"{{url}}"
					],
					"port": "9000",
					"path": [
						"track"
					]
				}
			},
			"response": []
		},
		{
			"name": "create tracks",
			"request": {
				"method": "POST",
				"header": [],
				"body": {
					"mode": "raw",
					"raw": "[\r\n\t{\r\n    \t\"id\": 1,\r\n        \"name\":\"track1\"\r\n    },\t\r\n    {\r\n    \t\"id\": 2,\r\n        \"name\":\"track2\"\r\n    }\r\n ]\r\n    ",
					"options": {
						"raw": {
							"language": "json"
						}
					}
				},
				"url": {
					"raw": "http://{{url}}:9000/tracks",
					"protocol": "http",
					"host": [
						"{{url}}"
					],
					"port": "9000",
					"path": [
						"tracks"
					]
				}
			},
			"response": []
		},
		{
			"name": "all tracks",
			"request": {
				"method": "GET",
				"header": [],
				"url": {
					"raw": "http://{{url}}:9000/tracks",
					"protocol": "http",
					"host": [
						"{{url}}"
					],
					"port": "9000",
					"path": [
						"tracks"
					]
				}
			},
			"response": []
		},
		{
			"name": "track by name",
			"request": {
				"method": "GET",
				"header": [],
				"url": {
					"raw": "http://{{url}}:9000/track?trackname=track1",
					"protocol": "http",
					"host": [
						"{{url}}"
					],
					"port": "9000",
					"path": [
						"track"
					],
					"query": [
						{
							"key": "trackname",
							"value": "track1"
						}
					]
				}
			},
			"response": []
		},
		{
			"name": "track by id",
			"request": {
				"method": "GET",
				"header": [],
				"url": {
					"raw": "http://{{url}}:9000/track?id=2",
					"protocol": "http",
					"host": [
						"{{url}}"
					],
					"port": "9000",
					"path": [
						"track"
					],
					"query": [
						{
							"key": "id",
							"value": "2"
						}
					]
				}
			},
			"response": []
		},
		{
			"name": "create vehicle",
			"request": {
				"method": "POST",
				"header": [],
				"body": {
					"mode": "raw",
					"raw": "\r\n\t{\r\n    \t\"id\": 1,\r\n        \"name\":\"car1\",\r\n        \"category\": \"category1\"\r\n    }\r\n    ",
					"options": {
						"raw": {
							"language": "json"
						}
					}
				},
				"url": {
					"raw": "http://{{url}}:9000/vehicle",
					"protocol": "http",
					"host": [
						"{{url}}"
					],
					"port": "9000",
					"path": [
						"vehicle"
					]
				}
			},
			"response": []
		},
		{
			"name": "create vehicles",
			"request": {
				"method": "POST",
				"header": [],
				"body": {
					"mode": "raw",
					"raw": "[\r\n\t{\r\n    \t\"id\": 1,\r\n        \"name\":\"car1\",\r\n        \"category\": \"category1\"\r\n    },\t\r\n    {\r\n    \t\"id\": 2,\r\n        \"name\":\"car2\",\r\n        \"category\": \"category2\"\r\n    },\t\r\n    {\r\n    \t\"id\": 3,\r\n        \"name\":\"car3\",\r\n        \"category\": \"category2\"\r\n    }\r\n ]\r\n    ",
					"options": {
						"raw": {
							"language": "json"
						}
					}
				},
				"url": {
					"raw": "http://{{url}}:9000/vehicles",
					"protocol": "http",
					"host": [
						"{{url}}"
					],
					"port": "9000",
					"path": [
						"vehicles"
					]
				}
			},
			"response": []
		},
		{
			"name": "all vehicles",
			"request": {
				"method": "GET",
				"header": [],
				"url": {
					"raw": "http://{{url}}:9000/vehicles",
					"protocol": "http",
					"host": [
						"{{url}}"
					],
					"port": "9000",
					"path": [
						"vehicles"
					]
				}
			},
			"response": []
		},
		{
			"name": "vehicles by name",
			"request": {
				"method": "GET",
				"header": [],
				"url": {
					"raw": "http://{{url}}:9000/vehicles?name=car1",
					"protocol": "http",
					"host": [
						"{{url}}"
					],
					"port": "9000",
					"path": [
						"vehicles"
					],
					"query": [
						{
							"key": "name",
							"value": "car1"
						}
					]
				}
			},
			"response": []
		},
		{
			"name": "vehicles by id",
			"request": {
				"method": "GET",
				"header": [],
				"url": {
					"raw": "http://{{url}}:9000/vehicles?id=2",
					"protocol": "http",
					"host": [
						"{{url}}"
					],
					"port": "9000",
					"path": [
						"vehicles"
					],
					"query": [
						{
							"key": "id",
							"value": "2"
						}
					]
				}
			},
			"response": []
		},
		{
			"name": "vehicles by category",
			"request": {
				"method": "GET",
				"header": [],
				"url": {
					"raw": "http://{{url}}:9000/vehicles?category=category2",
					"protocol": "http",
					"host": [
						"{{url}}"
					],
					"port": "9000",
					"path": [
						"vehicles"
					],
					"query": [
						{
							"key": "category",
							"value": "category2"
						}
					]
				}
			},
			"response": []
		},
		{
			"name": "updateVehicleList",
			"request": {
				"method": "GET",
				"header": [],
				"url": {
					"raw": "http://{{url}}:9000/updateVehicles",
					"protocol": "http",
					"host": [
						"{{url}}"
					],
					"port": "9000",
					"path": [
						"updateVehicles"
					]
				}
			},
			"response": []
		},
		{
			"name": "updateTrackList",
			"request": {
				"method": "GET",
				"header": [],
				"url": {
					"raw": "http://{{url}}:9000/updateTracks",
					"protocol": "http",
					"host": [
						"{{url}}"
					],
					"port": "9000",
					"path": [
						"updateTracks"
					]
				}
			},
			"response": []
		},
		{
			"name": "updateLaptimes",
			"request": {
				"method": "GET",
				"header": [],
				"url": {
					"raw": "http://{{url}}:9000/updateTracks",
					"protocol": "http",
					"host": [
						"{{url}}"
					],
					"port": "9000",
					"path": [
						"updateTracks"
					]
				}
			},
			"response": []
		},
		{
			"name": "updateLaptimesLight",
			"request": {
				"method": "GET",
				"header": [],
				"url": {
					"raw": "http://{{url}}:9000/updateLaptimesLight",
					"protocol": "http",
					"host": [
						"{{url}}"
					],
					"port": "9000",
					"path": [
						"updateLaptimesLight"
					]
				}
			},
			"response": []
		}
	],
	"protocolProfileBehavior": {}
}